Наименование ;Державка;Пластина;Цена;Наличие;Фото1;Миниатюра1;Фото2;Миниатюра2
Отрезной MGEHR-1;20x20x125;CNMG1204;2500;да;catalog-sample.jpg;mini-catalog-sample.jpg;catalog-sample2.png;mini-catalog-sample2.png
Отрезной MGEHR-2;20x20x126;CNMG1205;3500;да;catalog-sample.jpg;mini-catalog-sample.jpg;catalog-sample2.png;mini-catalog-sample2.png
Отрезной MGEHR-3;20x20x127;CNMG1206;4500;да;catalog-sample.jpg;mini-catalog-sample.jpg;catalog-sample2.png;mini-catalog-sample2.png
Отрезной MGEHR-4;20x20x128;CNMG1207;5500;да;catalog-sample.jpg;mini-catalog-sample.jpg;catalog-sample2.png;mini-catalog-sample2.png
Отрезной MGEHR-5;20x20x129;CNMG1208;6500;да;catalog-sample.jpg;mini-catalog-sample.jpg;catalog-sample2.png;mini-catalog-sample2.png
Отрезной MGEHR-6;20x20x130;CNMG1209;7500;да;catalog-sample.jpg;mini-catalog-sample.jpg;catalog-sample2.png;mini-catalog-sample2.png
Отрезной MGEHR-7;20x20x131;CNMG1210;8500;да;catalog-sample.jpg;mini-catalog-sample.jpg;catalog-sample2.png;mini-catalog-sample2.png
Отрезной MGEHR-8;20x20x132;CNMG1211;9500;нет;catalog-sample.jpg;mini-catalog-sample.jpg;catalog-sample2.png;mini-catalog-sample2.png
Отрезной MGEHR-9;20x20x133;CNMG1212;10500;нет;catalog-sample.jpg;mini-catalog-sample.jpg;catalog-sample2.png;mini-catalog-sample2.png
Отрезной MGEHR-10;20x20x134;CNMG1213;11500;нет;catalog-sample.jpg;mini-catalog-sample.jpg;catalog-sample2.png;mini-catalog-sample2.png
Отрезной MGEHR-11;20x20x135;CNMG1214;12500;да;catalog-sample.jpg;mini-catalog-sample.jpg;catalog-sample2.png;mini-catalog-sample2.png
Отрезной MGEHR-12;20x20x136;CNMG1215;13500;да;catalog-sample.jpg;mini-catalog-sample.jpg;catalog-sample2.png;mini-catalog-sample2.png
Отрезной MGEHR-13;20x20x137;CNMG1216;14500;да;catalog-sample.jpg;mini-catalog-sample.jpg;catalog-sample2.png;mini-catalog-sample2.png
Отрезной MGEHR-14;20x20x138;CNMG1217;15500;да;catalog-sample.jpg;mini-catalog-sample.jpg;catalog-sample2.png;mini-catalog-sample2.png
Отрезной MGEHR-15;20x20x139;CNMG1218;16500;да;catalog-sample.jpg;mini-catalog-sample.jpg;catalog-sample2.png;mini-catalog-sample2.png
Отрезной MGEHR-16;20x20x140;CNMG1219;17500;да;catalog-sample.jpg;mini-catalog-sample.jpg;catalog-sample2.png;mini-catalog-sample2.png
Отрезной MGEHR-17;20x20x141;CNMG1220;18500;нет;catalog-sample.jpg;mini-catalog-sample.jpg;catalog-sample2.png;mini-catalog-sample2.png
Отрезной MGEHR-18;20x20x142;CNMG1221;19500;нет;catalog-sample.jpg;mini-catalog-sample.jpg;catalog-sample2.png;mini-catalog-sample2.png
Отрезной MGEHR-19;20x20x143;CNMG1222;20500;да;catalog-sample.jpg;mini-catalog-sample.jpg;catalog-sample2.png;mini-catalog-sample2.png
Отрезной MGEHR-20;20x20x144;CNMG1223;21500;да;catalog-sample.jpg;mini-catalog-sample.jpg;catalog-sample2.png;mini-catalog-sample2.png
Отрезной MGEHR-21;20x20x145;CNMG1224;22500;да;catalog-sample.jpg;mini-catalog-sample.jpg;catalog-sample2.png;mini-catalog-sample2.png
Отрезной MGEHR-22;20x20x146;CNMG1225;23500;да;catalog-sample.jpg;mini-catalog-sample.jpg;catalog-sample2.png;mini-catalog-sample2.png
Отрезной MGEHR-23;20x20x147;CNMG1226;24500;да;catalog-sample.jpg;mini-catalog-sample.jpg;catalog-sample2.png;mini-catalog-sample2.png
Отрезной MGEHR-24;20x20x148;CNMG1227;25500;да;catalog-sample.jpg;mini-catalog-sample.jpg;catalog-sample2.png;mini-catalog-sample2.png
Отрезной MGEHR-25;20x20x149;CNMG1228;26500;да;catalog-sample.jpg;mini-catalog-sample.jpg;catalog-sample2.png;mini-catalog-sample2.png
